100 100
21 20
2 37
3 16
70 95
15 20
80 44
17 61
94 65
79 27
93 17
94 3
66 38
79 47
15 85
68 83
72 56
59 45
5 42
45 58
86 60
63 42
31 55
99 86
10 25
34 69
90 93
53 92
83 1
53 46
11 86
32 57
29 49
65 38
21 70
89 54
33 98
59 17
91 12
96 16
19 3
24 63
30 46
58 68
3 7
48 4
34 86
15 74
71 57
30 63
49 48
64 77
54 43
59 73
84 42
81 92
33 91
49 25
5 57
55 38
63 61
53 94
17 71
42 55
57 79
50 4
57 61
51 100
8 75
85 73
89 3
21 64
9 36
19 54
51 39
90 45
94 91
50 69
1 78
59 27
77 16
75 99
46 26
40 60
89 12
88 43
63 12
33 21
16 71
97 64
18 5
10 63
24 29
1 7
41 99
72 64
89 60
89 92
6 88
8 25
85 44
0 0
